simulation/qsim/LabTwo.msim.vcd
$comment
	File created using the following command:
		vcd file LabTwo.msim.vcd -direction
$end
$date
	Wed Jun 26 18:52:34 2024
$end
$version
	ModelSim Version 10.1d
$end
$timescale
	1ps
$end
$scope module DataMem_vlg_vec_tst $end
$var reg 8 ! address [7:0] $end
$var reg 1 " clock $end
$var reg 8 # data [7:0] $end
$var reg 1 $ wren $end
$var wire 1 % q [7] $end
$var wire 1 & q [6] $end
$var wire 1 ' q [5] $end
$var wire 1 ( q [4] $end
$var wire 1 ) q [3] $end
$var wire 1 * q [2] $end
$var wire 1 + q [1] $end
$var wire 1 , q [0] $end
$var wire 1 - sampler $end
$scope module i1 $end
$var wire 1 . gnd $end
$var wire 1 / vcc $end
$var wire 1 0 unknown $end
$var tri1 1 1 devclrn $end
$var tri1 1 2 devpor $end
$var tri1 1 3 devoe $end
$var wire 1 4 q[0]~output_o $end
$var wire 1 5 q[1]~output_o $end
$var wire 1 6 q[2]~output_o $end
$var wire 1 7 q[3]~output_o $end
$var wire 1 8 q[4]~output_o $end
$var wire 1 9 q[5]~output_o $end
$var wire 1 : q[6]~output_o $end
$var wire 1 ; q[7]~output_o $end
$var wire 1 < wren~input_o $end
$var wire 1 = clock~input_o $end
$var wire 1 > clock~inputclkctrl_outclk $end
$var wire 1 ? data[0]~input_o $end
$var wire 1 @ address[0]~input_o $end
$var wire 1 A address[1]~input_o $end
$var wire 1 B address[2]~input_o $end
$var wire 1 C address[3]~input_o $end
$var wire 1 D address[4]~input_o $end
$var wire 1 E address[5]~input_o $end
$var wire 1 F address[6]~input_o $end
$var wire 1 G address[7]~input_o $end
$var wire 1 H data[1]~input_o $end
$var wire 1 I data[2]~input_o $end
$var wire 1 J data[3]~input_o $end
$var wire 1 K data[4]~input_o $end
$var wire 1 L data[5]~input_o $end
$var wire 1 M data[6]~input_o $end
$var wire 1 N data[7]~input_o $end
$var wire 1 O altsyncram_component|auto_generated|q_a [7] $end
$var wire 1 P altsyncram_component|auto_generated|q_a [6] $end
$var wire 1 Q altsyncram_component|auto_generated|q_a [5] $end
$var wire 1 R altsyncram_component|auto_generated|q_a [4] $end
$var wire 1 S altsyncram_component|auto_generated|q_a [3] $end
$var wire 1 T altsyncram_component|auto_generated|q_a [2] $end
$var wire 1 U altsyncram_component|auto_generated|q_a [1] $end
$var wire 1 V altsyncram_component|auto_generated|q_a [0] $end
$var wire 1 W altsyncram_component|auto_generated|ram_block1a0_PORTADATAOUT_bus [17] $end
$var wire 1 X altsyncram_component|auto_generated|ram_block1a0_PORTADATAOUT_bus [16] $end
$var wire 1 Y altsyncram_component|auto_generated|ram_block1a0_PORTADATAOUT_bus [15] $end
$var wire 1 Z altsyncram_component|auto_generated|ram_block1a0_PORTADATAOUT_bus [14] $end
$var wire 1 [ altsyncram_component|auto_generated|ram_block1a0_PORTADATAOUT_bus [13] $end
$var wire 1 \ altsyncram_component|auto_generated|ram_block1a0_PORTADATAOUT_bus [12] $end
$var wire 1 ] altsyncram_component|auto_generated|ram_block1a0_PORTADATAOUT_bus [11] $end
$var wire 1 ^ altsyncram_component|auto_generated|ram_block1a0_PORTADATAOUT_bus [10] $end
$var wire 1 _ altsyncram_component|auto_generated|ram_block1a0_PORTADATAOUT_bus [9] $end
$var wire 1 ` altsyncram_component|auto_generated|ram_block1a0_PORTADATAOUT_bus [8] $end
$var wire 1 a altsyncram_component|auto_generated|ram_block1a0_PORTADATAOUT_bus [7] $end
$var wire 1 b altsyncram_component|auto_generated|ram_block1a0_PORTADATAOUT_bus [6] $end
$var wire 1 c altsyncram_component|auto_generated|ram_block1a0_PORTADATAOUT_bus [5] $end
$var wire 1 d altsyncram_component|auto_generated|ram_block1a0_PORTADATAOUT_bus [4] $end
$var wire 1 e altsyncram_component|auto_generated|ram_block1a0_PORTADATAOUT_bus [3] $end
$var wire 1 f altsyncram_component|auto_generated|ram_block1a0_PORTADATAOUT_bus [2] $end
$var wire 1 g altsyncram_component|auto_generated|ram_block1a0_PORTADATAOUT_bus [1] $end
$var wire 1 h altsyncram_component|auto_generated|ram_block1a0_PORTADATAOUT_bus [0] $end
$upscope $end
$upscope $end
$enddefinitions $end
#0
$dumpvars
b0 !
0"
b11111111 #
0$
0,
0+
0*
0)
0(
0'
0&
0%
x-
0.
1/
x0
11
12
13
04
05
06
07
08
09
0:
0;
0<
0=
0>
1?
0@
0A
0B
0C
0D
0E
0F
0G
1H
1I
1J
1K
1L
1M
1N
0V
0U
0T
0S
0R
0Q
0P
0O
0h
0g
0f
0e
0d
0c
0b
0a
0`
0_
0^
0]
0\
0[
0Z
0Y
0X
0W
$end
#5000
1"
1=
1>
0-
#5001
1h
1f
1d
1b
1V
1T
1R
1P
14
16
18
1:
1,
1*
1(
1&
#10000
0"
0=
0>
1-
#15000
1"
1=
1>
0-
#20000
0"
0=
0>
1-
#25000
1"
1=
1>
0-
#30000
0"
0=
0>
1-
#35000
1"
1=
1>
0-
#40000
0"
0=
0>
1-
#40400
1$
1<
0-
#45000
1"
1=
1>
1-
#45001
1g
1e
1c
1a
1U
1S
1Q
1O
15
17
19
1;
1+
1)
1'
1%
#50000
0"
0=
0>
0-
#55000
1"
1=
1>
1-
#60000
0"
0=
0>
0-
#65000
1"
1=
1>
1-
#70000
0"
0=
0>
0-
#75000
1"
1=
1>
1-
#80000
0$
0"
0<
0=
0>
0-
#85000
1"
1=
1>
1-
#90000
0"
0=
0>
0-
#95000
1"
1=
1>
1-
#100000
0"
0=
0>
0-
#105000
1"
1=
1>
1-
#110000
0"
0=
0>
0-
#115000
1"
1=
1>
1-
#120000
b1 !
0"
1@
0=
0>
0-
#125000
1"
1=
1>
1-
#125001
0h
0f
0d
0b
0V
0T
0R
0P
04
06
08
0:
0,
0*
0(
0&
#130000
0"
0=
0>
0-
#135000
1"
1=
1>
1-
#140000
0"
0=
0>
0-
#145000
1"
1=
1>
1-
#150000
0"
0=
0>
0-
#155000
1"
1=
1>
1-
#160000
0"
0=
0>
0-
#160400
1$
1<
1-
#165000
1"
1=
1>
0-
#165001
1h
1f
1d
1b
1V
1T
1R
1P
14
16
18
1:
1,
1*
1(
1&
#170000
0"
0=
0>
1-
#175000
1"
1=
1>
0-
#180000
0"
0=
0>
1-
#185000
1"
1=
1>
0-
#190000
0"
0=
0>
1-
#195000
1"
1=
1>
0-
#200000
0$
0"
0<
0=
0>
1-
#205000
1"
1=
1>
0-
#210000
0"
0=
0>
1-
#215000
1"
1=
1>
0-
#220000
0"
0=
0>
1-
#225000
1"
1=
1>
0-
#230000
0"
0=
0>
1-
#235000
1"
1=
1>
0-
#240000
b11 !
b10 !
0"
0@
1A
0=
0>
1-
#245000
1"
1=
1>
0-
#245001
0h
0g
0f
0e
0d
0c
0b
0a
0V
0U
0T
0S
0R
0Q
0P
0O
04
05
06
07
08
09
0:
0;
0,
0+
0*
0)
0(
0'
0&
0%
#250000
0"
0=
0>
1-
#255000
1"
1=
1>
0-
#260000
0"
0=
0>
1-
#265000
1"
1=
1>
0-
#270000
0"
0=
0>
1-
#275000
1"
1=
1>
0-
#280000
0"
0=
0>
1-
#280400
1$
1<
0-
#285000
1"
1=
1>
1-
#285001
1h
1g
1f
1e
1d
1c
1b
1a
1V
1U
1T
1S
1R
1Q
1P
1O
14
15
16
17
18
19
1:
1;
1,
1+
1*
1)
1(
1'
1&
1%
#290000
0"
0=
0>
0-
#295000
1"
1=
1>
1-
#300000
0"
0=
0>
0-
#305000
1"
1=
1>
1-
#310000
0"
0=
0>
0-
#315000
1"
1=
1>
1-
#320000
0$
0"
0<
0=
0>
0-
#325000
1"
1=
1>
1-
#330000
0"
0=
0>
0-
#335000
1"
1=
1>
1-
#340000
0"
0=
0>
0-
#345000
1"
1=
1>
1-
#350000
0"
0=
0>
0-
#355000
1"
1=
1>
1-
#360000
b11 !
0"
1@
0=
0>
0-
#365000
1"
1=
1>
1-
#365001
0h
0g
0f
0e
0d
0c
0b
0a
0V
0U
0T
0S
0R
0Q
0P
0O
04
05
06
07
08
09
0:
0;
0,
0+
0*
0)
0(
0'
0&
0%
#370000
0"
0=
0>
0-
#375000
1"
1=
1>
1-
#380000
0"
0=
0>
0-
#385000
1"
1=
1>
1-
#390000
0"
0=
0>
0-
#395000
1"
1=
1>
1-
#400000
0"
0=
0>
0-
#400400
1$
1<
1-
#405000
1"
1=
1>
0-
#405001
1h
1g
1f
1e
1d
1c
1b
1a
1V
1U
1T
1S
1R
1Q
1P
1O
14
15
16
17
18
19
1:
1;
1,
1+
1*
1)
1(
1'
1&
1%
#410000
0"
0=
0>
1-
#415000
1"
1=
1>
0-
#420000
0"
0=
0>
1-
#425000
1"
1=
1>
0-
#430000
0"
0=
0>
1-
#435000
1"
1=
1>
0-
#440000
0$
0"
0<
0=
0>
1-
#445000
1"
1=
1>
0-
#450000
0"
0=
0>
1-
#455000
1"
1=
1>
0-
#460000
0"
0=
0>
1-
#465000
1"
1=
1>
0-
#470000
0"
0=
0>
1-
#475000
1"
1=
1>
0-
#480000
b111 !
b101 !
b100 !
0"
0@
0A
1B
0=
0>
1-
#485000
1"
1=
1>
0-
#485001
0h
0g
0f
0e
0d
0c
0b
0a
0V
0U
0T
0S
0R
0Q
0P
0O
04
05
06
07
08
09
0:
0;
0,
0+
0*
0)
0(
0'
0&
0%
#490000
0"
0=
0>
1-
#495000
1"
1=
1>
0-
#500000
0"
0=
0>
1-
#505000
1"
1=
1>
0-
#510000
0"
0=
0>
1-
#515000
1"
1=
1>
0-
#520000
0"
0=
0>
1-
#520400
1$
1<
0-
#525000
1"
1=
1>
1-
#525001
1h
1g
1f
1e
1d
1c
1b
1a
1V
1U
1T
1S
1R
1Q
1P
1O
14
15
16
17
18
19
1:
1;
1,
1+
1*
1)
1(
1'
1&
1%
#530000
0"
0=
0>
0-
#535000
1"
1=
1>
1-
#540000
0"
0=
0>
0-
#545000
1"
1=
1>
1-
#550000
0"
0=
0>
0-
#555000
1"
1=
1>
1-
#560000
0$
0"
0<
0=
0>
0-
#565000
1"
1=
1>
1-
#570000
0"
0=
0>
0-
#575000
1"
1=
1>
1-
#580000
0"
0=
0>
0-
#585000
1"
1=
1>
1-
#590000
0"
0=
0>
0-
#595000
1"
1=
1>
1-
#600000
b101 !
0"
1@
0=
0>
0-
#605000
1"
1=
1>
1-
#605001
0h
0g
0f
0e
0d
0c
0b
0a
0V
0U
0T
0S
0R
0Q
0P
0O
04
05
06
07
08
09
0:
0;
0,
0+
0*
0)
0(
0'
0&
0%
#610000
0"
0=
0>
0-
#615000
1"
1=
1>
1-
#620000
0"
0=
0>
0-
#625000
1"
1=
1>
1-
#630000
0"
0=
0>
0-
#635000
1"
1=
1>
1-
#640000
0"
0=
0>
0-
#640400
1$
1<
1-
#645000
1"
1=
1>
0-
#645001
1h
1g
1f
1e
1d
1c
1b
1a
1V
1U
1T
1S
1R
1Q
1P
1O
14
15
16
17
18
19
1:
1;
1,
1+
1*
1)
1(
1'
1&
1%
#650000
0"
0=
0>
1-
#655000
1"
1=
1>
0-
#660000
0"
0=
0>
1-
#665000
1"
1=
1>
0-
#670000
0"
0=
0>
1-
#675000
1"
1=
1>
0-
#680000
0$
0"
0<
0=
0>
1-
#685000
1"
1=
1>
0-
#690000
0"
0=
0>
1-
#695000
1"
1=
1>
0-
#700000
0"
0=
0>
1-
#705000
1"
1=
1>
0-
#710000
0"
0=
0>
1-
#715000
1"
1=
1>
0-
#720000
b111 !
b110 !
0"
0@
1A
0=
0>
1-
#725000
1"
1=
1>
0-
#725001
0h
0g
0f
0e
0d
0c
0b
0a
0V
0U
0T
0S
0R
0Q
0P
0O
04
05
06
07
08
09
0:
0;
0,
0+
0*
0)
0(
0'
0&
0%
#730000
0"
0=
0>
1-
#735000
1"
1=
1>
0-
#740000
0"
0=
0>
1-
#745000
1"
1=
1>
0-
#750000
0"
0=
0>
1-
#755000
1"
1=
1>
0-
#760000
0"
0=
0>
1-
#760400
1$
1<
0-
#765000
1"
1=
1>
1-
#765001
1h
1g
1f
1e
1d
1c
1b
1a
1V
1U
1T
1S
1R
1Q
1P
1O
14
15
16
17
18
19
1:
1;
1,
1+
1*
1)
1(
1'
1&
1%
#770000
0"
0=
0>
0-
#775000
1"
1=
1>
1-
#780000
0"
0=
0>
0-
#785000
1"
1=
1>
1-
#790000
0"
0=
0>
0-
#795000
1"
1=
1>
1-
#800000
0$
0"
0<
0=
0>
0-
#805000
1"
1=
1>
1-
#810000
0"
0=
0>
0-
#815000
1"
1=
1>
1-
#820000
0"
0=
0>
0-
#825000
1"
1=
1>
1-
#830000
0"
0=
0>
0-
#835000
1"
1=
1>
1-
#840000
b111 !
0"
1@
0=
0>
0-
#845000
1"
1=
1>
1-
#845001
0h
0g
0f
0e
0d
0c
0b
0a
0V
0U
0T
0S
0R
0Q
0P
0O
04
05
06
07
08
09
0:
0;
0,
0+
0*
0)
0(
0'
0&
0%
#850000
0"
0=
0>
0-
#855000
1"
1=
1>
1-
#860000
0"
0=
0>
0-
#865000
1"
1=
1>
1-
#870000
0"
0=
0>
0-
#875000
1"
1=
1>
1-
#880000
0"
0=
0>
0-
#880400
1$
1<
1-
#885000
1"
1=
1>
0-
#885001
1h
1g
1f
1e
1d
1c
1b
1a
1V
1U
1T
1S
1R
1Q
1P
1O
14
15
16
17
18
19
1:
1;
1,
1+
1*
1)
1(
1'
1&
1%
#890000
0"
0=
0>
1-
#895000
1"
1=
1>
0-
#900000
0"
0=
0>
1-
#905000
1"
1=
1>
0-
#910000
0"
0=
0>
1-
#915000
1"
1=
1>
0-
#920000
0$
0"
0<
0=
0>
1-
#925000
1"
1=
1>
0-
#930000
0"
0=
0>
1-
#935000
1"
1=
1>
0-
#940000
0"
0=
0>
1-
#945000
1"
1=
1>
0-
#950000
0"
0=
0>
1-
#955000
1"
1=
1>
0-
#960000
b1111 !
b1011 !
b1001 !
b1000 !
0"
0@
0A
0B
1C
0=
0>
1-
#965000
1"
1=
1>
0-
#965001
0h
0g
0f
0e
0d
0c
0b
0a
0V
0U
0T
0S
0R
0Q
0P
0O
04
05
06
07
08
09
0:
0;
0,
0+
0*
0)
0(
0'
0&
0%
#970000
0"
0=
0>
1-
#975000
1"
1=
1>
0-
#980000
0"
0=
0>
1-
#985000
1"
1=
1>
0-
#990000
0"
0=
0>
1-
#995000
1"
1=
1>
0-
